\relax 
\providecommand\hyper@newdestlabel[2]{}
\abx@aux@refcontext{nty/global//global/global}
\catcode `"\active 
\providecommand\HyperFirstAtBeginDocument{\AtBeginDocument}
\HyperFirstAtBeginDocument{\ifx\hyper@anchor\@undefined
\global\let\oldcontentsline\contentsline
\gdef\contentsline#1#2#3#4{\oldcontentsline{#1}{#2}{#3}}
\global\let\oldnewlabel\newlabel
\gdef\newlabel#1#2{\newlabelxx{#1}#2}
\gdef\newlabelxx#1#2#3#4#5#6{\oldnewlabel{#1}{{#2}{#3}}}
\AtEndDocument{\ifx\hyper@anchor\@undefined
\let\contentsline\oldcontentsline
\let\newlabel\oldnewlabel
\fi}
\fi}
\global\let\hyper@last\relax 
\gdef\HyperFirstAtBeginDocument#1{#1}
\providecommand\HyField@AuxAddToFields[1]{}
\providecommand\HyField@AuxAddToCoFields[2]{}
\AC@reset@newl@bel
\@writefile{toc}{\boolfalse {citerequest}\boolfalse {citetracker}\boolfalse {pagetracker}\boolfalse {backtracker}\relax }
\@writefile{lof}{\boolfalse {citerequest}\boolfalse {citetracker}\boolfalse {pagetracker}\boolfalse {backtracker}\relax }
\@writefile{lot}{\boolfalse {citerequest}\boolfalse {citetracker}\boolfalse {pagetracker}\boolfalse {backtracker}\relax }
\babel@aux{ngerman}{}
\babel@aux{ngerman}{}
\@writefile{toc}{\defcounter {refsection}{0}\relax }\@writefile{toc}{\contentsline {section}{\numberline {1}Einleitung}{1}{section.1}}
\@writefile{toc}{\defcounter {refsection}{0}\relax }\@writefile{toc}{\contentsline {section}{\numberline {2}Karte}{1}{section.2}}
\@writefile{toc}{\defcounter {refsection}{0}\relax }\@writefile{toc}{\contentsline {subsection}{\numberline {2.1}Umsetzung als Guttenberg Block}{1}{subsection.2.1}}
\@writefile{toc}{\defcounter {refsection}{0}\relax }\@writefile{toc}{\contentsline {paragraph}{Verwendetes Verkzeug}{1}{section*.1}}
\@writefile{toc}{\defcounter {refsection}{0}\relax }\@writefile{toc}{\contentsline {subsection}{\numberline {2.2}Internationalisierung des Guttenberg Blocks}{1}{subsection.2.2}}
\abx@aux@cite{internat1}
\abx@aux@segm{0}{0}{internat1}
\AC@undonewlabel{acro:wp-cli}
\newlabel{acro:wp-cli}{{2.2}{2}{Internationalisierung des Guttenberg Blocks}{section*.2}{}}
\acronymused{wp-cli}
\acronymused{wp-cli}
\acronymused{wp-cli}
\newlabel{lst:createPot}{{1}{2}{Erstellen der Übersetzungsdatei}{lstlisting.1}{}}
\@writefile{lol}{\defcounter {refsection}{0}\relax }\@writefile{lol}{\contentsline {lstlisting}{\numberline {1}Erstellen der \IeC {\"U}bersetzungsdatei}{2}{lstlisting.1}}
\newlabel{lst:createJson}{{2}{2}{Überführen der Übersetzung nach JSON}{lstlisting.2}{}}
\@writefile{lol}{\defcounter {refsection}{0}\relax }\@writefile{lol}{\contentsline {lstlisting}{\numberline {2}\IeC {\"U}berf\IeC {\"u}hren der \IeC {\"U}bersetzung nach JSON}{2}{lstlisting.2}}
\acronymused{wp-cli}
\abx@aux@refcontextdefaultsdone
\abx@aux@defaultrefcontext{0}{internat1}{nty/global//global/global}
\newlabel{lst:createJson2}{{3}{3}{Umwandlung mittels po2json}{lstlisting.3}{}}
\@writefile{lol}{\defcounter {refsection}{0}\relax }\@writefile{lol}{\contentsline {lstlisting}{\numberline {3}Umwandlung mittels po2json}{3}{lstlisting.3}}
